^C:\USERS\KIKOOS1\SOURCE\REPOS\COURSEPROJECTS\COURSEPROJECTWITHFILE\DEBUG\COURSEPROJECTWITHFILE.OBJ
C:\USERS\KIKOOS1\SOURCE\REPOS\COURSEPROJECTS\DEBUG\COURSEPROJECTWITHFILE.EXE
C:\USERS\KIKOOS1\SOURCE\REPOS\COURSEPROJECTS\DEBUG\COURSEPROJECTWITHFILE.ILK
C:\USERS\KIKOOS1\SOURCE\REPOS\COURSEPROJECTS\DEBUG\COURSEPROJECTWITHFILE.PDB
